module gitlab.com/chub-lib/rest

go 1.17

require (
	github.com/gin-gonic/gin v1.7.7
	github.com/go-playground/locales v0.14.0
	github.com/go-playground/universal-translator v0.18.0
	github.com/go-playground/validator/v10 v10.9.0
)

require (
	github.com/gin-contrib/sse v0.1.0 // indirect
	github.com/golang/protobuf v1.3.3 // indirect
	github.com/json-iterator/go v1.1.9 // indirect
	github.com/leodido/go-urn v1.2.1 // indirect
	github.com/mattn/go-isatty v0.0.12 // indirect
	github.com/modern-go/concurrent v0.0.0-20180228061459-e0a39a4cb421 // indirect
	github.com/modern-go/reflect2 v0.0.0-20180701023420-4b7aa43c6742 // indirect
	github.com/ugorji/go/codec v1.1.7 // indirect
	golang.org/x/crypto v0.0.0-20210711020723-a769d52b0f97 // indirect
	golang.org/x/sys v0.0.0-20210806184541-e5e7981a1069 // indirect
	golang.org/x/text v0.3.6 // indirect
	gopkg.in/yaml.v2 v2.2.8 // indirect
)
